{
  "$schema": "http://json-schema.org/schema#",

  "definitions": {
    "event": {
      "type": "object",
      "properties": {
        "application" : {
          "type": "string"
        },
        "actor": {
          "type": "integer"
        },
        "timestamp": {
          "type": "integer",
          "minimum": 0
        },
        "activity_type": {
          "type": "string",
          "enum": [
              "object_created",
              "object_updated",
              "object_removed",
              "interest_added",
              "interest_removed",
              "support_added",
              "support_removed",
              "initiator_added",
              "initiator_removed",
              "suggestion_rated",
              "delegation_set",
              "delegation_changed",
              "delegation_removed",
              "issue_voted_on",
              "account_registered",
              "screen_name_changed",
              "profile_updated",
              "avatar_changed",
              "contact_published",
              "contact_unpublished",
              "issue_timeline_requested",
              "issue_status_updated",
              "contribution_added",
              "contribution_updated",
              "contribution_removed",
              "subscription_added",
              "subscription_removed",
              "object_reported",
              "object_suspended",
              "object_approved"
            ]
        },
        "activity_objects": {
          "type": "array",
          "items": {
            "$ref": "#/definitions/feature"
          }
        },
        "references": {
          "type": "array",
          "items": {
            "$ref": "#/definitions/geo_object"
          }
        },
        "details": {
          "type": "object",
          "properties": {}
        },
        "visibility_details": {
          "type": "array",
          "items": {
            "$ref": "#/definitions/hidden_list_entry"
          }
        }
      },
      "required": [
        "actor",
        "timestamp",
        "activity_type"
      ],
      "additionalProperties": false
    },
    "geometry": {
      "type": "object",
      "required": [
        "type",
        "coordinates"
      ],
      "oneOf": [
        {
          "title": "Point",
          "properties": {
            "type": {
              "enum": [
                "Point"
              ]
            },
            "coordinates": {
              "$ref": "#/definitions/position"
            }
          }
        },
        {
          "title": "MultiPoint",
          "properties": {
            "type": {
              "enum": [
                "MultiPoint"
              ]
            },
            "coordinates": {
              "$ref": "#/definitions/positionArray"
            }
          }
        },
        {
          "title": "LineString",
          "properties": {
            "type": {
              "enum": [
                "LineString"
              ]
            },
            "coordinates": {
              "$ref": "#/definitions/lineString"
            }
          }
        },
        {
          "title": "MultiLineString",
          "properties": {
            "type": {
              "enum": [
                "MultiLineString"
              ]
            },
            "coordinates": {
              "type": "array",
              "items": {
                "$ref": "#/definitions/lineString"
              }
            }
          }
        },
        {
          "title": "Polygon",
          "properties": {
            "type": {
              "enum": [
                "Polygon"
              ]
            },
            "coordinates": {
              "$ref": "#/definitions/polygon"
            }
          }
        },
        {
          "title": "MultiPolygon",
          "properties": {
            "type": {
              "enum": [
                "MultiPolygon"
              ]
            },
            "coordinates": {
              "type": "array",
              "items": {
                "$ref": "#/definitions/polygon"
              }
            }
          }
        }
      ]
    },
    "position": {
      "type": "array",
      "minItems": 2,
      "items": [
        {
          "type": "number"
        },
        {
          "type": "number"
        }
      ],
      "additionalItems": false
    },
    "positionArray": {
      "description": "An array of positions",
      "type": "array",
      "items": {
        "$ref": "#/definitions/position"
      }
    },
    "lineString": {
      "allOf": [
        {
          "$ref": "#/definitions/positionArray"
        },
        {
          "minItems": 2
        }
      ]
    },
    "linearRing": {
      "allOf": [
        {
          "$ref": "#/definitions/positionArray"
        },
        {
          "minItems": 4
        }
      ]
    },
    "polygon": {
      "type": "array",
      "items": {
        "$ref": "#/definitions/linearRing"
      }
    },
    "feature": {
      "required": [
        "geometry",
        "properties"
      ],
      "properties": {
        "type": {
          "enum": [
            "Feature"
          ]
        },
        "geometry": {
          "oneOf": [
            {
              "type": "null"
            },
            {
              "$ref": "#/definitions/geometry"
            }
          ]
        },
        "properties": {
          "type": "object",
          "properties": {
            "hasType": {
              "type": "string"
            },
            "external_url": {
              "type": "string"
            },
            "html_snippet": {
              "type": "string"
            },
            "additionalProperties": {
              "type": "object",
              "properties": {}
            }
          },
          "required": ["hasType", "external_url"]
        }
      }
    },
    "geo_object": {
      "type": "object",
      "properties": {
        "external_url": {
          "type": "string"
        },
        "application": {
          "type": "string"
        },
        "type": {
          "type": "string"
        }
      },
      "required": ["external_url", "application"],
      "additionalProperties": false
    },
    "hidden_list_entry": {
      "type": "object",
      "properties": {
        "external_url": {
          "type": "string"
        },
        "hidden": {
          "type": "boolean"
        }
      },
      "required": ["external_url", "hidden"],
      "additionalProperties": false
    }
  },
  "type": "object",
  "properties": {
    "event_list": {
      "type": "array",
      "items": {"$ref": "#/definitions/event"}
    }
  },
  "required": ["event_list"],
  "additionalProperties": false
}